AE 15: Optimizing color spaces
…
library(tidyverse)
library(colorspace) # for improved color palettes
library(scales) # for improved labels
library(ggthemes) # for scale_color_colorblind()

theme_set(theme_classic(base_size = 12))

Import birth data

The Social Security Administration keeps detailed records on births and deaths in the United States. For our analysis, we will use a dataset of the number of births daily in the United States from 1994-2014.1

births <- read_rds("data/births.Rds")
births

# A tibble: 7,670 × 7
    year month   date_of_month day_of_week births date_of_month_catego…¹ weekend
   <dbl> <ord>           <dbl> <ord>        <dbl> <fct>                  <lgl>  
 1  1994 January             1 Saturday      8096 1                      TRUE   
 2  1994 January             2 Sunday        7772 2                      TRUE   
 3  1994 January             3 Monday       10142 3                      FALSE  
 4  1994 January             4 Tuesday      11248 4                      FALSE  
 5  1994 January             5 Wednesday    11053 5                      FALSE  
 6  1994 January             6 Thursday     11406 6                      FALSE  
 7  1994 January             7 Friday       11251 7                      FALSE  
 8  1994 January             8 Saturday      8653 8                      TRUE   
 9  1994 January             9 Sunday        7910 9                      TRUE   
10  1994 January            10 Monday       10498 10                     FALSE  
# ℹ 7,660 more rows
# ℹ abbreviated name: ¹​date_of_month_categorical
…
# add code here

Create a heatmap showing average number of births by day of year

Let’s explore the relative popularity of each calendar day for births. We will create a heatmap showing the relative ratio of births for each day of the year compared to the annual average.

avg_births_month_day <- births |>
  group_by(month, date_of_month_categorical) |>
  summarize(avg_births = mean(births), .groups = "drop") |>
  mutate(avg_births_ratio = avg_births / mean(births$births))
avg_births_month_day

# A tibble: 366 × 4
   month   date_of_month_categorical avg_births avg_births_ratio
   <ord>   <fct>                          <dbl>            <dbl>
 1 January 1                              7827.            0.700
 2 January 2                              9356.            0.837
 3 January 3                             10869.            0.973
 4 January 4                             11064.            0.990
 5 January 5                             10992.            0.984
 6 January 6                             10942.            0.979
 7 January 7                             10963.            0.981
 8 January 8                             10656.            0.954
 9 January 9                             10672.            0.955
10 January 10                            11072.            0.991
# ℹ 356 more rows
…
