AE 08: A custom {ggplot2} theme for Cornell
…
Organizational branding is a set of visual and verbal elements that represent an organization. It is “how your audience perceives you” and created through “many elements, including your name, logo, tagline, website, colors, collateral, messaging, positioning, graphic elements, social media, and other outreach platforms.”1

Cornell University maintains detailed guidelines for its brand identity. The design center provides explicit instructions for using the Cornell logo, color palette, and typography, as well as downloadable materials such as a PowerPoint template.

Suppose we wish to create a series of statistical charts to be used in a Cornell Bowers CIS2 presentation, but we want to ensure they are both reproducible as well as consistent with the university’s branding. We can use the {ggplot2} package to create a custom theme that adheres to the Cornell brand identity.

Basic bar chart

Let’s create a basic chart to assist us with generating an appropriate {ggplot2} theme. Here we will use graduation trends from Cornell University from College Scorecard. In this instance, we will use a bar chart to visualize the percentage of degrees awarded for three fields of study from 2018-22.

cornell_degrees <- read_csv("data/cornell-degrees.csv")
cornell_degrees

# A tibble: 135 × 3
   field_of_study  year    pct
   <chr>          <dbl>  <dbl>
 1 Computer        1996 0.0421
 2 Computer        1997 0.0497
 3 Computer        1998 0.0581
 4 Computer        1999 0.0716
 5 Computer        2000 0.0684
 6 Computer        2001 0.0859
 7 Computer        2002 0.0745
 8 Computer        2003 0.0463
 9 Computer        2004 0.0327
10 Computer        2005 0.032 
# ℹ 125 more rows
…
