AE 18: Visualizing increased polarization of baby names
…
Rows: 200 Columns: 7
── Column specification ────────────────────────────────────────────────────────
Delimiter: ","
chr (3): outcome, sex, name
dbl (4): year, Trump, Harris, part_diff

ℹ Use `spec()` to retrieve the full column specification for this data.
ℹ Specify the column types or set `show_col_types = FALSE` to quiet this message.

partisan_names

# A tibble: 200 × 7
   outcome sex   year  name     Trump Harris part_diff
   <chr>   <chr> <fct> <chr>    <dbl>  <dbl>     <dbl>
 1 Trump   M     1983  Kendrick 0.942 0.0580     0.884
 2 Trump   M     1983  Trey     0.932 0.0682     0.864
 3 Trump   M     1983  Rodrick  0.927 0.0732     0.854
 4 Trump   F     1983  Ashlea   0.917 0.0833     0.833
 5 Trump   F     1983  Tosha    0.890 0.110      0.780
 6 Trump   F     1983  Misti    0.886 0.114      0.773
 7 Trump   F     1983  Latoria  0.883 0.117      0.767
 8 Trump   M     1983  Jackie   0.876 0.124      0.753
 9 Trump   M     1983  Demarcus 0.870 0.130      0.740
10 Trump   F     1983  Angelia  0.869 0.131      0.737
# ℹ 190 more rows
…
